net\enchantedmc\discord\util\UtilMaps.class
net\enchantedmc\discord\invite\InviteListener.class
net\enchantedmc\discord\mongo\DatabaseManager.class
net\enchantedmc\discord\invite\InviteListener$1.class
net\enchantedmc\discord\DiscordBot.class
net\enchantedmc\discord\util\Pair.class
net\enchantedmc\discord\invite\command\InviteCommand.class
net\enchantedmc\discord\chat\ChatListener.class
net\enchantedmc\discord\invite\command\CheckInvitesCommand.class
net\enchantedmc\discord\util\PrivateMessage.class
