D:\IntelliJ Idea\Projects\DiscordBot\src\main\java\net\enchantedmc\discord\invite\command\InviteCommand.java
D:\IntelliJ Idea\Projects\DiscordBot\src\main\java\net\enchantedmc\discord\DiscordBot.java
D:\IntelliJ Idea\Projects\DiscordBot\src\main\java\net\enchantedmc\discord\invite\command\CheckInvitesCommand.java
D:\IntelliJ Idea\Projects\DiscordBot\src\main\java\net\enchantedmc\discord\invite\InviteListener.java
D:\IntelliJ Idea\Projects\DiscordBot\src\main\java\net\enchantedmc\discord\util\Pair.java
D:\IntelliJ Idea\Projects\DiscordBot\src\main\java\net\enchantedmc\discord\util\UtilMaps.java
D:\IntelliJ Idea\Projects\DiscordBot\src\main\java\net\enchantedmc\discord\chat\ChatListener.java
D:\IntelliJ Idea\Projects\DiscordBot\src\main\java\net\enchantedmc\discord\mongo\DatabaseManager.java
